module gitlab.com/radistgla/user-service

go 1.13

require (
	github.com/golang/protobuf v1.3.3
	github.com/jinzhu/gorm v1.9.12
	github.com/micro/go-micro v1.18.0
	golang.org/x/net v0.0.0-20200202094626-16171245cfb2
)
